DEPTH = 401;
WIDTH = 8;
ADDRESS_RADIX = HEX;
DATA_RADIX = HEX;
CONTENT
BEGIN
00000000 : C8;
00000001 : FF 80;
00000003 : FB 99;
00000005 : F2 B1;
00000007 : E5 C6;
00000009 : D4 D8;
0000000B : C0 E6;
0000000D : A9 F0;
0000000F : 92 F5;
00000011 : 7A F5;
00000013 : 63 F0;
00000015 : 4D E7;
00000017 : 3A DA;
00000019 : 2A C9;
0000001B : 1F B6;
0000001D : 17 A1;
0000001F : 14 8B;
00000021 : 15 75;
00000023 : 1A 60;
00000025 : 24 4D;
00000027 : 31 3C;
00000029 : 41 2F;
0000002B : 53 25;
0000002D : 66 1F;
0000002F : 7A 1D;
00000031 : 8E 1F;
00000033 : A0 25;
00000035 : B1 2F;
00000037 : BF 3B;
00000039 : CB 4A;
0000003B : D3 5B;
0000003D : D7 6D;
0000003F : D8 7F;
00000041 : D5 90;
00000043 : CF A1;
00000045 : C5 AF;
00000047 : B9 BB;
00000049 : AC C5;
0000004B : 9C CB;
0000004D : 8C CE;
0000004F : 7C CE;
00000051 : 6D CA;
00000053 : 5F C4;
00000055 : 53 BB;
00000057 : 49 B0;
00000059 : 41 A3;
0000005B : 3C 95;
0000005D : 3B 87;
0000005F : 3C 79;
00000061 : 3F 6C;
00000063 : 46 60;
00000065 : 4E 56;
00000067 : 58 4E;
00000069 : 64 48;
0000006B : 70 45;
0000006D : 7C 44;
0000006F : 87 46;
00000071 : 92 4A;
00000073 : 9C 50;
00000075 : A4 58;
00000077 : AA 61;
00000079 : AF 6A;
0000007B : B1 75;
0000007D : B1 7F;
0000007F : AF 88;
00000081 : AB 91;
00000083 : A5 99;
00000085 : 9E 9F;
00000087 : 97 A3;
00000089 : 8F A6;
0000008B : 86 A7;
0000008D : 7E A7;
0000008F : 77 A4;
00000091 : 70 A1;
00000093 : 6A 9C;
00000095 : 66 96;
00000097 : 63 90;
00000099 : 62 8A;
0000009B : 62 83;
0000009D : 63 7D;
0000009F : 65 78;
000000A1 : 68 73;
000000A3 : 6C 70;
000000A5 : 70 6D;
000000A7 : 75 6B;
000000A9 : 7A 6B;
000000AB : 7E 6B;
000000AD : 82 6D;
000000AF : 85 6F;
000000B1 : 88 71;
000000B3 : 8A 74;
000000B5 : 8B 77;
000000B7 : 8B 7A;
000000B9 : 8A 7D;
000000BB : 89 7F;
000000BD : 88 81;
000000BF : 86 82;
000000C1 : 85 83;
000000C3 : 83 83;
000000C5 : 82 83;
000000C7 : 80 82;
000000C9 : 00 80;
000000CB : 04 66;
000000CD : 0D 4E;
000000CF : 1A 39;
000000D1 : 2B 27;
000000D3 : 3F 19;
000000D5 : 56 0F;
000000D7 : 6D 0A;
000000D9 : 85 0A;
000000DB : 9C 0F;
000000DD : B2 18;
000000DF : C5 25;
000000E1 : D5 36;
000000E3 : E0 49;
000000E5 : E8 5E;
000000E7 : EB 74;
000000E9 : EA 8A;
000000EB : E5 9F;
000000ED : DB B2;
000000EF : CE C3;
000000F1 : BE D0;
000000F3 : AC DA;
000000F5 : 99 E0;
000000F7 : 85 E2;
000000F9 : 71 E0;
000000FB : 5F DA;
000000FD : 4E D0;
000000FF : 40 C4;
00000101 : 34 B5;
00000103 : 2C A4;
00000105 : 28 92;
00000107 : 27 80;
00000109 : 2A 6F;
0000010B : 30 5E;
0000010D : 3A 50;
0000010F : 46 44;
00000111 : 53 3A;
00000113 : 63 34;
00000115 : 73 31;
00000117 : 83 31;
00000119 : 92 35;
0000011B : A0 3B;
0000011D : AC 44;
0000011F : B6 4F;
00000121 : BE 5C;
00000123 : C3 6A;
00000125 : C4 78;
00000127 : C3 86;
00000129 : C0 93;
0000012B : B9 9F;
0000012D : B1 A9;
0000012F : A7 B1;
00000131 : 9B B7;
00000133 : 8F BA;
00000135 : 83 BB;
00000137 : 78 B9;
00000139 : 6D B5;
0000013B : 63 AF;
0000013D : 5B A7;
0000013F : 55 9E;
00000141 : 50 95;
00000143 : 4E 8A;
00000145 : 4E 80;
00000147 : 50 77;
00000149 : 54 6E;
0000014B : 5A 66;
0000014D : 61 60;
0000014F : 68 5C;
00000151 : 70 59;
00000153 : 79 58;
00000155 : 81 58;
00000157 : 88 5B;
00000159 : 8F 5E;
0000015B : 95 63;
0000015D : 99 69;
0000015F : 9C 6F;
00000161 : 9D 75;
00000163 : 9D 7C;
00000165 : 9C 82;
00000167 : 9A 87;
00000169 : 97 8C;
0000016B : 93 8F;
0000016D : 8F 92;
0000016F : 8A 94;
00000171 : 85 94;
00000173 : 81 94;
00000175 : 7D 92;
00000177 : 7A 90;
00000179 : 77 8E;
0000017B : 75 8B;
0000017D : 74 88;
0000017F : 74 85;
00000181 : 75 82;
00000183 : 76 80;
00000185 : 77 7E;
00000187 : 79 7D;
00000189 : 7A 7C;
0000018B : 7C 7C;
0000018D : 7D 7C;
0000018F : 7F 7D;
END;
